<svg width="12" height="18" viewBox="0 0 12 18" fill="none" xmlns="http://www.w3.org/2000/svg">
<path d="M0.17981 17.4482V0.92759H3.54411V2.93817C4.29891 1.46785 5.76261 0.683105 7.32151 0.683105C10.3696 0.683105 12.0016 3.35533 12.0016 7.05849C12.0016 11.7635 9.58762 13.6767 7.17531 13.6767C5.68951 13.6767 4.57091 13.0629 3.81271 11.837V17.4499H0.17981V17.4482ZM3.81271 8.42965C3.81271 10.1701 4.61511 11.225 5.93091 11.225C7.73801 11.225 8.19531 9.23833 8.19531 7.1303C8.19531 4.28711 7.31981 3.13307 5.93091 3.13307C4.63891 3.13307 3.81271 4.23753 3.81271 5.73349V8.42965Z" fill="white"/>
</svg>
